\relax 
\providecommand\tcolorbox@label[2]{}
\@writefile{toc}{\contentsline {section}{\numberline {1}Introduction}{2}}
\@writefile{toc}{\contentsline {section}{\numberline {2}Data Collection and Processing}{2}}
\@writefile{lot}{\contentsline {table}{\numberline {1}{\ignorespaces Description of datasets.\relax }}{2}}
\providecommand*\caption@xref[2]{\@setref\relax\@undefined{#1}}
\newlabel{tab:training}{{1}{2}}
\@writefile{lot}{\contentsline {table}{\numberline {2}{\ignorespaces Signature of \texttt  {collectData} method.\relax }}{3}}
\newlabel{tab:testing}{{2}{3}}
\@writefile{lot}{\contentsline {table}{\numberline {3}{\ignorespaces Signature of \texttt  {data\_processing} method.\relax }}{3}}
\newlabel{tab:training}{{3}{3}}
\@writefile{toc}{\contentsline {section}{\numberline {3}Classifiers}{3}}
\@writefile{toc}{\contentsline {subsection}{\numberline {3.1}Naive Bayes Classifier}{3}}
\newlabel{nbcfor}{{3.1}{3}}
\@writefile{toc}{\contentsline {subsection}{\numberline {3.2}Decision Tree}{4}}
\@writefile{lof}{\contentsline {figure}{\numberline {1}{\ignorespaces DT evaluation using k-fold cross validation\relax }}{4}}
\newlabel{dt}{{1}{4}}
\@writefile{lot}{\contentsline {table}{\numberline {4}{\ignorespaces Pearson correlation between label and other predictive features.\relax }}{5}}
\newlabel{tab:dtcorr}{{4}{5}}
\@writefile{toc}{\contentsline {subsection}{\numberline {3.3}K-Nearest Neighbors}{5}}
\@writefile{lof}{\contentsline {figure}{\numberline {2}{\ignorespaces KNN evaluation using k-fold cross validation\relax }}{5}}
\newlabel{knn}{{2}{5}}
\@writefile{toc}{\contentsline {subsection}{\numberline {3.4}Classification Instructions}{6}}
\@writefile{lot}{\contentsline {table}{\numberline {5}{\ignorespaces Signature of \texttt  {training} method.\relax }}{6}}
\newlabel{tab:training}{{5}{6}}
\@writefile{lot}{\contentsline {table}{\numberline {6}{\ignorespaces Signature of \texttt  {testing} method.\relax }}{6}}
\newlabel{tab:testing}{{6}{6}}
\@writefile{toc}{\contentsline {subsection}{\numberline {3.5}Code Example}{7}}
\@writefile{toc}{\contentsline {section}{\numberline {4}Results}{7}}
\@writefile{toc}{\contentsline {section}{\numberline {5}Discussion and Future Work}{12}}
